{
 "both": true,
 "exclusive": false,
 "track": {
  "inner": {
   "vertices": [
    [
     3.061616997868383e-16,
     5.0
    ],
    [
     -3.5355339059327373,
     3.5355339059327378
    ],
    [
     -5.0,
     6.123233995736766e-16
    ],
    [
     -3.5355339059327386,
     -3.5355339059327373
    ],
    [
     -9.184850993605148e-16,
     -5.0
    ],
    [
     3.535533905932737,
     -3.5355339059327386
    ],
    [
     5.0,
     -1.2246467991473533e-15
    ],
    [
     3.5355339059327386,
     3.535533905932737
    ],
    [
     1.5308084989341915e-15,
     5.0
    ]
   ]
  },
  "outer": {
   "vertices": [
    [
     6.123233995736766e-16,
     10.0
    ],
    [
     -7.071067811865475,
     7.0710678118654755
    ],
    [
     -10.0,
     1.2246467991473533e-15
    ],
    [
     -7.071067811865477,
     -7.071067811865475
    ],
    [
     -1.8369701987210296e-15,
     -10.0
    ],
    [
     7.071067811865474,
     -7.071067811865477
    ],
    [
     10.0,
     -2.4492935982947065e-15
    ],
    [
     7.071067811865477,
     7.071067811865474
    ],
    [
     3.061616997868383e-15,
     10.0
    ]
   ]
  }
 }
}
  
